INFO 3312/5312 - Look at data
…
New variable: pctpell_cat

scorecard <- scorecard |>
  mutate(pctpell_cat = cut_interval(x = pctpell, n = 6)) |>
  drop_na(pctpell_cat)

scorecard |>
  select(pctpell, pctpell_cat)

# A tibble: 1,717 × 2
   pctpell pctpell_cat  
     <dbl> <fct>        
 1   0.710 (0.667,0.833]
 2   0.340 (0.333,0.5]  
 3   0.240 (0.167,0.333]
 4   0.737 (0.667,0.833]
 5   0.172 (0.167,0.333]
 6   0.465 (0.333,0.5]  
 7   0.134 [0,0.167]    
 8   0.226 (0.167,0.333]
 9   0.501 (0.5,0.667]  
10   0.697 (0.667,0.833]
# … with 1,707 more rows
…
