INFO 3312/5312 - data-wrangling-i - live-coding guide
…
Import scdb_cases

library(tidyverse)
library(scales)

scdb_case <- read_csv("https://info3312.infosci.cornell.edu/slides/data/scdb-case.csv")

Select relevant columns for viewing purposes

scdb_case |>
  # select relevant columns
  select(term, majVotes, minVotes)

# A tibble: 29,021 × 3
    term majVotes minVotes
   <dbl>    <dbl>    <dbl>
 1  1791        5        0
 2  1791        5        0
 3  1792        6        0
 4  1792        6        0
 5  1792        4        2
 6  1792        6        0
 7  1793        4        1
 8  1793        5        0
 9  1793        4        1
10  1794        1        0
# … with 29,011 more rows

Filter data

scdb_case |>
  # select relevant columns
  select(term, majVotes, minVotes) |>
  # filter to include post 1945 term cases
  filter(term >= 1945)

# A tibble: 9,299 × 3
    term majVotes minVotes
   <dbl>    <dbl>    <dbl>
 1  1945        8        0
 2  1945        7        1
 3  1945        8        0
 4  1945        8        0
 5  1945        8        0
 6  1945        7        1
 7  1945        8        0
 8  1945        8        0
 9  1945        8        0
10  1945        8        0
# … with 9,289 more rows

Calculate vote margin variable

scdb_case |>
  # select relevant columns
  select(term, majVotes, minVotes) |>
  # filter to include post 1945 term cases
  filter(term >= 1945) |>
  # calculate vote margin for each case
  mutate(vote_margin = majVotes - minVotes)

# A tibble: 9,299 × 4
    term majVotes minVotes vote_margin
   <dbl>    <dbl>    <dbl>       <dbl>
 1  1945        8        0           8
 2  1945        7        1           6
 3  1945        8        0           8
 4  1945        8        0           8
 5  1945        8        0           8
 6  1945        7        1           6
 7  1945        8        0           8
 8  1945        8        0           8
 9  1945        8        0           8
10  1945        8        0           8
# … with 9,289 more rows

Calculate number of cases decided per term and vote margin

scdb_case |>
  # select relevant columns
  select(term, majVotes, minVotes) |>
  # filter to include post 1945 term cases
  filter(term >= 1945) |>
  # calculate vote margin for each case
  mutate(vote_margin = majVotes - minVotes) |>
  # calculate number of cases decided per term and vote margin
  count(term, vote_margin)

# A tibble: 686 × 3
    term vote_margin     n
   <dbl>       <dbl> <int>
 1  1945           0     3
 2  1945           1     9
 3  1945           2    17
 4  1945           3     8
 5  1945           4    13
 6  1945           5     6
 7  1945           6    24
 8  1945           7    16
 9  1945           8    43
10  1946           0     1
# … with 676 more rows
…
  # select relevant columns
  select(term, majVotes, minVotes) |>
  # filter to include post 1945 term cases
  filter(term >= 1945) |>
  # calculate vote margin for each case
  mutate(vote_margin = majVotes - minVotes) |>
  # calculate number of cases decided per term and vote margin
  count(term, vote_margin) |>
  # calculate percentages by term
  group_by(term) |>
  mutate(
    n_pct = n / sum(n)
  )

# A tibble: 686 × 4
# Groups:   term [77]
    term vote_margin     n   n_pct
   <dbl>       <dbl> <int>   <dbl>
 1  1945           0     3 0.0216 
 2  1945           1     9 0.0647 
 3  1945           2    17 0.122  
 4  1945           3     8 0.0576 
 5  1945           4    13 0.0935 
 6  1945           5     6 0.0432 
 7  1945           6    24 0.173  
 8  1945           7    16 0.115  
 9  1945           8    43 0.309  
10  1946           0     1 0.00704
# … with 676 more rows
…
  # filter to include post 1945 term cases
  filter(term >= 1945) |>
  # calculate vote margin for each case
  mutate(vote_margin = majVotes - minVotes) |>
  # calculate number of cases decided per term and vote margin
  count(term, vote_margin) |>
  # calculate percentages by term
  group_by(term) |>
  mutate(
    n_pct = n / sum(n),
    # convert vote_margin to factor variable for plotting
    vote_margin = factor(x = vote_margin)
  )

# A tibble: 686 × 4
# Groups:   term [77]
    term vote_margin     n   n_pct
   <dbl> <fct>       <int>   <dbl>
 1  1945 0               3 0.0216 
 2  1945 1               9 0.0647 
 3  1945 2              17 0.122  
 4  1945 3               8 0.0576 
 5  1945 4              13 0.0935 
 6  1945 5               6 0.0432 
 7  1945 6              24 0.173  
 8  1945 7              16 0.115  
 9  1945 8              43 0.309  
10  1946 0               1 0.00704
# … with 676 more rows
…
